<svg xmlns="http://www.w3.org/2000/svg" width="34.282" height="33.5" viewBox="0 0 34.282 33.5">
  <path id="ic_person_outline_24px" d="M21.141,7.978a4.4,4.4,0,1,1-4.5,4.4,4.449,4.449,0,0,1,4.5-4.4m0,18.844c6.364,0,13.07,3.057,13.07,4.4v2.3H8.071v-2.3c0-1.34,6.707-4.4,13.07-4.4M21.141,4a8.472,8.472,0,0,0-8.571,8.375,8.573,8.573,0,0,0,17.141,0A8.472,8.472,0,0,0,21.141,4Zm0,18.844C15.42,22.844,4,25.65,4,31.219V37.5H38.282V31.219C38.282,25.65,26.862,22.844,21.141,22.844Z" transform="translate(-4 -4)" fill="#fff"/>
</svg>
